INDEX VERSION 1.130+C:\Users\WIFI\Desktop\practica 2.5\.metadata\.plugins\org.eclipse.jdt.core
3439039382.index
3163996356.index
2725782233.index
1012197361.index
948919066.index
2273491807.index
940800111.index
956752177.index
1173945041.index
2341309489.index
955459938.index
1817446190.index
3876057666.index
2663008219.index
2396838687.index
1417411144.index
3129114939.index
39414472.index
778160001.index
